…
  data_frame(rede_id, redner_id, redner_vorname, redner_nachname, redner_fraktion, redner_rolle)
}
```

Wir können mit dieser Funktion nun die vorher eingelesen XML-Datei in einen Datenframe umwandeln und auswerten. 


```r
overview_df <- get_overview_df(prot_overview)

overview_df
```

```
## # A tibble: 144 x 6
##    rede_id redner_id redner_vorname redner_nachname redner_fraktion
##    <chr>   <chr>     <chr>          <chr>           <chr>          
##  1 ID1961… 11003196  Andrea         Nahles          SPD            
##  2 ID1961… 11004873  Ulrike         Schielke-Ziesi… AfD            
##  3 ID1961… 11002666  Hermann        Gröhe           CDU/CSU        
##  4 ID1961… 11004179  Johannes       Vogel           FDP            
##  5 ID1961… 11004012  Matthias W.    Birkwald        DIE LINKE      
##  6 ID1961… 11003578  Markus         Kurth           BÜNDNIS 90/DIE…
##  7 ID1961… 11003142  Hubertus       Heil            <NA>           
##  8 ID1961… 11004856  Jürgen         Pohl            AfD            
##  9 ID1961… 11002812  Max            Straubinger     CDU/CSU        
## 10 ID1961… 11004941  Gyde           Jensen          FDP            
## # ... with 134 more rows, and 1 more variable: redner_rolle <chr>
```
…
