…
  data_frame(id, geschlecht, geburtsjahr, partei, wahlperioden) %>%
    mutate(wahlperioden = map(wahlperioden, ~xml_nodes(., "WP") %>% xml_text() %>% as.integer())) %>%
    mutate(anzahl_wahlperioden = map(wahlperioden, ~length(.)) %>% unlist())
}

data_mdb <- get_data_mdb(file_stammdaten)

data_mdb
```

```
## # A tibble: 4,073 x 6
##    id       geschlecht geburtsjahr partei wahlperioden anzahl_wahlperioden
##    <chr>    <chr>            <int> <chr>  <list>                     <int>
##  1 11000001 männlich          1930 CDU    <int [7]>                      7
##  2 11000002 männlich          1909 FDP    <int [5]>                      5
##  3 11000003 weiblich          1913 CDU    <int [3]>                      3
##  4 11000004 weiblich          1933 CDU    <int [2]>                      2
##  5 11000005 männlich          1950 CDU    <int [5]>                      5
##  6 11000007 männlich          1919 SPD    <int [4]>                      4
##  7 11000008 männlich          1912 CDU    <int [1]>                      1
##  8 11000009 männlich          1876 CDU    <int [5]>                      5
##  9 11000010 weiblich          1944 SPD    <int [4]>                      4
## 10 11000011 männlich          1920 CDU    <int [3]>                      3
## # ... with 4,063 more rows
```
…
