Geschlechterunterschiede im Deutschen Bundestag
…
class(prot_extract) <- "xml_nodeset"

prot_overview <- map_dfr(prot_extract, ~get_overview_df(.))

3.1 Überblick der Reden

Wir konnten nun alle Dateien herunterladen und anschließend alle Protkolle in R einlesen. Mit unserer Funktion get_overview_df() konnten wir alle Protokolle in einen für uns passenden Datenframe umwandeln. Insgesamt können wir derzeit 5.777 Reden des aktuellen Bundestags untersuchen – etwa nach der Person, welche die meisten reden gehalten hat.

prot_overview %>% 
  group_by(redner_id, redner_vorname, redner_nachname,
           redner_fraktion, redner_rolle) %>% 
  summarise(reden = n()) %>%
  arrange(-reden)

## # A tibble: 773 x 6
## # Groups:   redner_id, redner_vorname, redner_nachname, redner_fraktion
## #   [728]
##    redner_id redner_vorname redner_nachname redner_fraktion redner_rolle
##    <chr>     <chr>          <chr>           <chr>           <chr>       
##  1 11002617  Peter          Altmaier        <NA>            Bundesminis…
##  2 999990073 Olaf           Scholz          <NA>            Bundesminis…
##  3 11004427  Volker         Ullrich         CDU/CSU         <NA>        
##  4 11001478  Angela         Merkel          <NA>            Bundeskanzl…
##  5 11004809  Heiko          Maas            <NA>            Bundesminis…
##  6 11004851  Frauke         Petry           fraktionslos    <NA>        
##  7 11004798  Alexander Graf Lambsdorff      FDP             <NA>        
##  8 11003625  Andreas        Scheuer         <NA>            Bundesminis…
##  9 999990074 Svenja         Schulze         <NA>            Bundesminis…
## 10 11003638  Jens           Spahn           <NA>            Bundesminis…
## # ... with 763 more rows, and 1 more variable: reden <int>
…
  data_frame(id, geschlecht, geburtsjahr, partei, wahlperioden) %>%
    mutate(wahlperioden = map(wahlperioden, ~xml_nodes(., "WP") %>% xml_text() %>% as.integer())) %>%
    mutate(anzahl_wahlperioden = map(wahlperioden, ~length(.)) %>% unlist())
}

data_mdb <- get_data_mdb(file_stammdaten)

data_mdb

## # A tibble: 4,073 x 6
##    id       geschlecht geburtsjahr partei wahlperioden anzahl_wahlperioden
##    <chr>    <chr>            <int> <chr>  <list>                     <int>
##  1 11000001 männlich          1930 CDU    <int [7]>                      7
##  2 11000002 männlich          1909 FDP    <int [5]>                      5
##  3 11000003 weiblich          1913 CDU    <int [3]>                      3
##  4 11000004 weiblich          1933 CDU    <int [2]>                      2
##  5 11000005 männlich          1950 CDU    <int [5]>                      5
##  6 11000007 männlich          1919 SPD    <int [4]>                      4
##  7 11000008 männlich          1912 CDU    <int [1]>                      1
##  8 11000009 männlich          1876 CDU    <int [5]>                      5
##  9 11000010 weiblich          1944 SPD    <int [4]>                      4
## 10 11000011 männlich          1920 CDU    <int [3]>                      3
## # ... with 4,063 more rows
…
