Geschlechterunterschiede im Deutschen Bundestag
…
            Geschlechterunterschiede im Deutschen Bundestag

Kapitel 4 Zwischenfazit

Wir konnten nun alle Dateien herunterladen und anschließend alle Protkolle in R einlesen. Mit unserer Funktion get_overview_df() konnten wir alle Protokolle in einen für uns passenden Datenframe umwandeln. Insgesamt können wir derzeit 5.777 Reden des aktuellen Bundestags untersuchen – etwa nach der Person, welche die meisten reden gehalten hat.

prot_overview %>% 
  group_by(redner_id, redner_vorname, redner_nachname,
           redner_fraktion, redner_rolle) %>% 
  summarise(reden = n()) %>%
  arrange(-reden)

## # A tibble: 773 x 6
## # Groups:   redner_id, redner_vorname, redner_nachname, redner_fraktion
## #   [728]
##    redner_id redner_vorname redner_nachname redner_fraktion redner_rolle
##    <chr>     <chr>          <chr>           <chr>           <chr>       
##  1 11002617  Peter          Altmaier        <NA>            Bundesminis…
##  2 999990073 Olaf           Scholz          <NA>            Bundesminis…
##  3 11004427  Volker         Ullrich         CDU/CSU         <NA>        
##  4 11001478  Angela         Merkel          <NA>            Bundeskanzl…
##  5 11004809  Heiko          Maas            <NA>            Bundesminis…
##  6 11004851  Frauke         Petry           fraktionslos    <NA>        
##  7 11004798  Alexander Graf Lambsdorff      FDP             <NA>        
##  8 11003625  Andreas        Scheuer         <NA>            Bundesminis…
##  9 999990074 Svenja         Schulze         <NA>            Bundesminis…
## 10 11003638  Jens           Spahn           <NA>            Bundesminis…
## # ... with 763 more rows, and 1 more variable: reden <int>
…
